ROGSAnne_HLS/solution_ROGSAnne/sim/systemc/ROGSAnne_trace.vcd
$date
     Dec 23, 2019       12:16:29
$end

$version
              SystemC 2.3.0-ASI --- Jul  4 2013 12:03:34
$end

$timescale
     1 ns
$end

$scope module SystemC $end
$var wire    1  aaa  clock       $end
$var wire    1  aab  ready       $end
$var wire   32  aac  numberOfPoints [31:0]  $end
$var real    1  aad  distResult       $end
$upscope $end
$enddefinitions  $end

$comment
All initial values are dumped below at time 0 sec = 0 timescale units.
$end

$dumpvars
1aaa
1aab
b11 aac
r-1.#QNAN aad
$end

#5
0aaa
r-1.#QNAN aad

#10
1aaa
0aab
r-1.#QNAN aad

#15
0aaa
r-1.#QNAN aad

#20
1aaa
1aab
r-1.#QNAN aad

#25
0aaa
r-1.#QNAN aad

#30
1aaa
0aab
r-1.#QNAN aad

#35
0aaa
r-1.#QNAN aad

#40
1aaa
r-1.#QNAN aad

#45
0aaa
r-1.#QNAN aad

#50
1aaa
r-1.#QNAN aad

#55
0aaa
r-1.#QNAN aad

#60
1aaa
r-1.#QNAN aad

#65
0aaa
r-1.#QNAN aad

#70
1aaa
r-1.#QNAN aad

#75
0aaa
r-1.#QNAN aad

#80
1aaa
r-1.#QNAN aad

#85
0aaa
r-1.#QNAN aad

#90
1aaa
r-1.#QNAN aad

#95
0aaa
r-1.#QNAN aad

#100
1aaa
r-1.#QNAN aad

#105
0aaa
r-1.#QNAN aad

#110
1aaa
r-1.#QNAN aad

#115
0aaa
r-1.#QNAN aad

#120
1aaa
r-1.#QNAN aad

#125
0aaa
r-1.#QNAN aad

#130
1aaa
r-1.#QNAN aad

#135
0aaa
r-1.#QNAN aad

#140
1aaa
r-1.#QNAN aad

#145
0aaa
r-1.#QNAN aad

#150
1aaa
r-1.#QNAN aad

#155
0aaa
r-1.#QNAN aad

#160
1aaa
r-1.#QNAN aad

#165
0aaa
r-1.#QNAN aad

#170
1aaa
r-1.#QNAN aad

#175
0aaa
r-1.#QNAN aad

#180
1aaa
r-1.#QNAN aad

#185
0aaa
r-1.#QNAN aad

#190
1aaa
r-1.#QNAN aad

#195
0aaa
r-1.#QNAN aad

