ROGSAnne_HLS/solution_ROGSAnne/sim/systemc/sc_trace_dCalc.x_inFifo_tr.vcd
$date
     Dec 23, 2019       12:16:29
$end

$version
              SystemC 2.3.0-ASI --- Jul  4 2013 12:03:34
$end

$timescale
     1 ps
$end

$scope module SystemC $end
$var wire    1  aaa  (port)if_read       $end
$var wire    1  aab  (port)if_empty_n       $end
$var wire    1  aac  (port)clock       $end
$var wire    1  aad  (port)rst       $end
$upscope $end
$enddefinitions  $end

$comment
All initial values are dumped below at time 0 sec = 0 timescale units.
$end

$dumpvars
0aaa
0aab
1aac
0aad
$end

#5000
0aac

#10000
1aac

#15000
0aac

#20000
1aac

#25000
0aac

#30000
1aac

#35000
0aac

#40000
1aac

#45000
0aac

#50000
1aac

#55000
0aac

#60000
1aac

#65000
0aac

#70000
1aac

#75000
0aac

#80000
1aac

#85000
0aac

#90000
1aac

#95000
0aac

#100000
1aac

#105000
0aac

#110000
1aac

#115000
0aac

#120000
1aac

#125000
0aac

#130000
1aac

#135000
0aac

#140000
1aac

#145000
0aac

#150000
1aac

#155000
0aac

#160000
1aac

#165000
0aac

#170000
1aac

#175000
0aac

#180000
1aac

#185000
0aac

#190000
1aac

#195000
0aac

